[{"line":1,"elements":[{"line":5,"name":"Writing Response to external file TC","description":"","id":"writing-response-to-external-file-tc","type":"scenario","keyword":"Scenario","steps":[{"name":"def util = Java.type(\"misc.Utils\")","result":{"duration":4133300,"status":"passed"},"match":{"location":"karate","arguments":[]},"keyword":"*","line":6,"doc_string":{"content_type":"","value":"16:03:40.139 From karate-config file","line":6}},{"name":"url \"https:\/\/reqres.in\/api\/users?page=2\"","result":{"duration":2017800,"status":"passed"},"match":{"location":"karate","arguments":[]},"keyword":"Given","line":7},{"name":"method get","result":{"duration":331032000,"status":"passed"},"match":{"location":"karate","arguments":[]},"keyword":"When","line":8,"doc_string":{"content_type":"","value":"16:03:40.139 request:\n1 > GET https:\/\/reqres.in\/api\/users?page=2\n1 > Accept-Encoding: gzip,deflate\n1 > Connection: Keep-Alive\n1 > Host: reqres.in\n1 > User-Agent: Apache-HttpClient\/4.5.12 (Java\/1.8.0_251)\n\n16:03:40.467 response time in milliseconds: 328.71\n1 < 200\n1 < Access-Control-Allow-Origin: *\n1 < Age: 3514\n1 < CF-Cache-Status: HIT\n1 < CF-RAY: 61cbf97648e2dd0a-SIN\n1 < Cache-Control: max-age=14400\n1 < Connection: keep-alive\n1 < Content-Type: application\/json; charset=utf-8\n1 < Date: Fri, 05 Feb 2021 10:33:39 GMT\n1 < Etag: W\/\"406-ut0vzoCuidvyMf8arZpMpJ6ZRDw\"\n1 < Expect-CT: max-age=604800, report-uri=\"https:\/\/report-uri.cloudflare.com\/cdn-cgi\/beacon\/expect-ct\"\n1 < NEL: {\"max_age\":604800,\"report_to\":\"cf-nel\"}\n1 < Report-To: {\"max_age\":604800,\"endpoints\":[{\"url\":\"https:\\\/\\\/a.nel.cloudflare.com\\\/report?s=eyMz0xBBHHaSbvu6NQiaSu98bSKMTQSTHDLzk4n9hw0dmbqwqmvIiLELoyMY9qvndpYcsNM4A%2FPy7wnrGd5PupzsSxam4uLKUc4%3D\"}],\"group\":\"cf-nel\"}\n1 < Server: cloudflare\n1 < Set-Cookie: __cfduid=d5fd6d5c08c77f99fb370e7da1deaa4181612521219; expires=Sun, 07-Mar-21 10:33:39 GMT; path=\/; domain=.reqres.in; HttpOnly; SameSite=Lax; Secure\n1 < Transfer-Encoding: chunked\n1 < Vary: Accept-Encoding\n1 < Via: 1.1 vegur\n1 < X-Powered-By: Express\n1 < cf-request-id: 08135a3deb0000dd0aaf00c000000001\n{\"page\":2,\"per_page\":6,\"total\":12,\"total_pages\":2,\"data\":[{\"id\":7,\"email\":\"michael.lawson@reqres.in\",\"first_name\":\"Michael\",\"last_name\":\"Lawson\",\"avatar\":\"https:\/\/reqres.in\/img\/faces\/7-image.jpg\"},{\"id\":8,\"email\":\"lindsay.ferguson@reqres.in\",\"first_name\":\"Lindsay\",\"last_name\":\"Ferguson\",\"avatar\":\"https:\/\/reqres.in\/img\/faces\/8-image.jpg\"},{\"id\":9,\"email\":\"tobias.funke@reqres.in\",\"first_name\":\"Tobias\",\"last_name\":\"Funke\",\"avatar\":\"https:\/\/reqres.in\/img\/faces\/9-image.jpg\"},{\"id\":10,\"email\":\"byron.fields@reqres.in\",\"first_name\":\"Byron\",\"last_name\":\"Fields\",\"avatar\":\"https:\/\/reqres.in\/img\/faces\/10-image.jpg\"},{\"id\":11,\"email\":\"george.edwards@reqres.in\",\"first_name\":\"George\",\"last_name\":\"Edwards\",\"avatar\":\"https:\/\/reqres.in\/img\/faces\/11-image.jpg\"},{\"id\":12,\"email\":\"rachel.howell@reqres.in\",\"first_name\":\"Rachel\",\"last_name\":\"Howell\",\"avatar\":\"https:\/\/reqres.in\/img\/faces\/12-image.jpg\"}],\"support\":{\"url\":\"https:\/\/reqres.in\/#support-heading\",\"text\":\"To keep ReqRes free, contributions towards server costs are appreciated!\"}}","line":8}},{"name":"status 200","result":{"duration":6500,"status":"passed"},"match":{"location":"karate","arguments":[]},"keyword":"Then","line":9},{"name":"def res = get response","result":{"duration":154100,"status":"passed"},"match":{"location":"karate","arguments":[]},"keyword":"*","line":10},{"name":"print res","result":{"duration":284100,"status":"passed"},"match":{"location":"karate","arguments":[]},"keyword":"*","line":12,"doc_string":{"content_type":"","value":"16:03:40.483 [print] {\n  \"per_page\": 6,\n  \"total\": 12,\n  \"data\": [\n    {\n      \"last_name\": \"Lawson\",\n      \"id\": 7,\n      \"avatar\": \"https:\/\/reqres.in\/img\/faces\/7-image.jpg\",\n      \"first_name\": \"Michael\",\n      \"email\": \"michael.lawson@reqres.in\"\n    },\n    {\n      \"last_name\": \"Ferguson\",\n      \"id\": 8,\n      \"avatar\": \"https:\/\/reqres.in\/img\/faces\/8-image.jpg\",\n      \"first_name\": \"Lindsay\",\n      \"email\": \"lindsay.ferguson@reqres.in\"\n    },\n    {\n      \"last_name\": \"Funke\",\n      \"id\": 9,\n      \"avatar\": \"https:\/\/reqres.in\/img\/faces\/9-image.jpg\",\n      \"first_name\": \"Tobias\",\n      \"email\": \"tobias.funke@reqres.in\"\n    },\n    {\n      \"last_name\": \"Fields\",\n      \"id\": 10,\n      \"avatar\": \"https:\/\/reqres.in\/img\/faces\/10-image.jpg\",\n      \"first_name\": \"Byron\",\n      \"email\": \"byron.fields@reqres.in\"\n    },\n    {\n      \"last_name\": \"Edwards\",\n      \"id\": 11,\n      \"avatar\": \"https:\/\/reqres.in\/img\/faces\/11-image.jpg\",\n      \"first_name\": \"George\",\n      \"email\": \"george.edwards@reqres.in\"\n    },\n    {\n      \"last_name\": \"Howell\",\n      \"id\": 12,\n      \"avatar\": \"https:\/\/reqres.in\/img\/faces\/12-image.jpg\",\n      \"first_name\": \"Rachel\",\n      \"email\": \"rachel.howell@reqres.in\"\n    }\n  ],\n  \"page\": 2,\n  \"total_pages\": 2,\n  \"support\": {\n    \"text\": \"To keep ReqRes free, contributions towards server costs are appreciated!\",\n    \"url\": \"https:\/\/reqres.in\/#support-heading\"\n  }\n}","line":12}},{"name":"util.writeToFile(\"jsonResult.json\",res)","result":{"duration":2569700,"status":"passed"},"match":{"location":"karate","arguments":[]},"keyword":"*","line":13,"doc_string":{"content_type":"","value":"16:03:40.483 after scenario inside config","line":13}}]},{"line":15,"name":"Reading Response from external file TC","description":"","id":"reading-response-from-external-file-tc","type":"scenario","keyword":"Scenario","steps":[{"name":"def data = read(\"classpath:jsonResult.json\")","result":{"duration":4173000,"status":"passed"},"match":{"location":"karate","arguments":[]},"keyword":"*","line":16,"doc_string":{"content_type":"","value":"16:03:40.264 From karate-config file","line":16}},{"name":"print data","result":{"duration":766300,"status":"passed"},"match":{"location":"karate","arguments":[]},"keyword":"*","line":17,"doc_string":{"content_type":"","value":"16:03:40.280 [print] {\n  \"per_page\": 6,\n  \"total\": 12,\n  \"data\": [\n    {\n      \"last_name\": \"Lawson\",\n      \"id\": 7,\n      \"avatar\": \"https:\/\/reqres.in\/img\/faces\/7-image.jpg\",\n      \"first_name\": \"Michael\",\n      \"email\": \"michael.lawson@reqres.in\"\n    },\n    {\n      \"last_name\": \"Ferguson\",\n      \"id\": 8,\n      \"avatar\": \"https:\/\/reqres.in\/img\/faces\/8-image.jpg\",\n      \"first_name\": \"Lindsay\",\n      \"email\": \"lindsay.ferguson@reqres.in\"\n    },\n    {\n      \"last_name\": \"Funke\",\n      \"id\": 9,\n      \"avatar\": \"https:\/\/reqres.in\/img\/faces\/9-image.jpg\",\n      \"first_name\": \"Tobias\",\n      \"email\": \"tobias.funke@reqres.in\"\n    },\n    {\n      \"last_name\": \"Fields\",\n      \"id\": 10,\n      \"avatar\": \"https:\/\/reqres.in\/img\/faces\/10-image.jpg\",\n      \"first_name\": \"Byron\",\n      \"email\": \"byron.fields@reqres.in\"\n    },\n    {\n      \"last_name\": \"Edwards\",\n      \"id\": 11,\n      \"avatar\": \"https:\/\/reqres.in\/img\/faces\/11-image.jpg\",\n      \"first_name\": \"George\",\n      \"email\": \"george.edwards@reqres.in\"\n    },\n    {\n      \"last_name\": \"Howell\",\n      \"id\": 12,\n      \"avatar\": \"https:\/\/reqres.in\/img\/faces\/12-image.jpg\",\n      \"first_name\": \"Rachel\",\n      \"email\": \"rachel.howell@reqres.in\"\n    }\n  ],\n  \"page\": 2,\n  \"total_pages\": 2,\n  \"support\": {\n    \"text\": \"To keep ReqRes free, contributions towards server costs are appreciated!\",\n    \"url\": \"https:\/\/reqres.in\/#support-heading\"\n  }\n}16:03:40.280 after scenario inside config","line":17}}]}],"name":"featurefiles\/karate16_WritingResponseToFile.feature","description":"Karate Test Suite 16\nWriting Response to external file","id":"karate-test-suite-16","keyword":"Feature","uri":"featurefiles\/karate16_WritingResponseToFile.feature"}]